Self Correlation • MicrobiomeDB
…
## it's also easy to sort and filter these network metrics
## begin by renaming columns
colnames(selfCorrelation_metabolomics.metrics) <- c('metabolite1', 'metabolite2', 'correlationCoef', 'pValue')
selfCorrelation_metabolomics.metrics %>%
    filter(correlationCoef > 0.5) %>%
    arrange(desc(correlationCoef))
#> # A tibble: 11,027 × 4
#>    metabolite1                       metabolite2          correlationCoef pValue
#>    <fct>                             <fct>                          <dbl>  <dbl>
#>  1 C46:3 TAG +NH4:C8-pos: Metabolite C46:3 TAG:C8-pos: M…           0.999      0
#>  2 C44:1 TAG +NH4:C8-pos: Metabolite C44:1 TAG:C8-pos: M…           0.999      0
#>  3 C16:0 LPC:C8-pos: Metabolite      C20:3 LPC:C8-pos: M…           0.999      0
#>  4 C44:2 TAG +NH4:C8-pos: Metabolite C44:2 TAG:C8-pos: M…           0.999      0
#>  5 C46:2 TAG +NH4:C8-pos: Metabolite C46:2 TAG:C8-pos: M…           0.998      0
#>  6 C52:0 TAG +NH4:C8-pos: Metabolite C52:0 TAG:C8-pos: M…           0.997      0
#>  7 C52:1 TAG +NH4:C8-pos: Metabolite C52:1 TAG:C8-pos: M…           0.997      0
#>  8 C50:0 TAG +NH4:C8-pos: Metabolite C50:0 TAG:C8-pos: M…           0.996      0
#>  9 C42:0 TAG +NH4:C8-pos: Metabolite C42:0 TAG:C8-pos: M…           0.995      0
#> 10 C48:3 TAG +NH4:C8-pos: Metabolite C48:3 TAG:C8-pos: M…           0.995      0
#> # ℹ 11,017 more rows
…
